{
  "build": {
    "core": "stm32",
    "cpu": "cortex-m3",
    "extra_flags": "-DSTM32F1 -DSTM32F103xB",
    "f_cpu": "72000000L",
    "hwids": [
      [
        "0x1EAF",
        "0x0003"
      ],
      [
        "0x1EAF",
        "0x0004"
      ]
    ],
    "ldscript": "ldscript_cb.ld",
    "mcu": "stm32f103c8t6",
    "variant": "BLUEPILL_F103XX"
  },
  "debug": {
    "jlink_device": "STM32F103C8",
    "openocd_target": "stm32f1x",
    "svd_path": "STM32F103xx.svd",
    "tools": {
      "stlink": {
        "default": true,
        "server": {
          "arguments": [
            "-f",
            "scripts/interface/stlink.cfg",
            "-c",
            "transport select hla_swd",
            "-f",
            "scripts/target/stm32f1x.cfg",
            "-c",
            "reset_config none"
          ],
          "executable": "bin/openocd",
          "package": "tool-openocd"
        }
      }
    }
  },
  "frameworks": [
    "arduino",
    "cmsis",
    "libopencm3",
    "stm32cube"
  ],
  "name": "BluePill F103C8 (128k)",
  "upload": {
    "maximum_ram_size": 20480,
    "maximum_size": 131072,
    "protocol": "stlink",
    "protocols": [
      "jlink",
      "stlink",
      "blackmagic",
      "dfu"
    ]
  },
  "url": "http://www.st.com/content/st_com/en/products/microcontrollers/stm32-32-bit-arm-cortex-mcus/stm32f1-series/stm32f103/stm32f103c8.html",
  "vendor": "Generic"
}
